{
  "disclaimer": "Usage subject to terms: https://openexchangerates.org/terms",
  "license": "https://openexchangerates.org/license",
  "timestamp": 1552899600,
  "base": "USD",
  "rates": {
    "AED": 3.673181,
    "AFN": 75.7895,
    "ALL": 110.329093,
    "AMD": 486.912812,
    "ANG": 1.824694,
    "AOA": 315.606,
    "ARS": 39.9895,
    "AUD": 1.406999,
    "AWG": 1.8,
    "AZN": 1.7025,
    "BAM": 1.727644,
    "BBD": 2,
    "BDT": 83.934111,
    "BGN": 1.725595,
    "BHD": 0.377044,
    "BIF": 1804.83657,
    "BMD": 1,
    "BND": 1.353611,
    "BOB": 6.90884,
    "BRL": 3.817302,
    "BSD": 1,
    "BTC": 0.000251008559,
    "BTN": 69.041107,
    "BWP": 10.716516,
    "BYN": 2.13175,
    "BZD": 2.01533,
    "CAD": 1.332133,
    "CDF": 1647.226986,
    "CHF": 1.001116,
    "CLF": 0.024214,
    "CLP": 669.994306,
    "CNH": 6.716673,
    "CNY": 6.713156,
    "COP": 3134.973607,
    "CRC": 601.130429,
    "CUC": 1,
    "CUP": 25.75,
    "CVE": 97.69875,
    "CZK": 22.606986,
    "DJF": 178,
    "DKK": 6.578606,
    "DOP": 50.570167,
    "DZD": 118.66,
    "EGP": 17.3773,
    "ERN": 14.997308,
    "ETB": 28.354914,
    "EUR": 0.881483,
    "FJD": 2.133147,
    "FKP": 0.75403,
    "GBP": 0.75403,
    "GEL": 2.68,
    "GGP": 0.75403,
    "GHS": 5.566483,
    "GIP": 0.75403,
    "GMD": 49.59,
    "GNF": 9122.033472,
    "GTQ": 7.691595,
    "GYD": 208.529854,
    "HKD": 7.849897,
    "HNL": 24.429502,
    "HRK": 6.5369,
    "HTG": 83.055795,
    "HUF": 277.062,
    "IDR": 14229.05,
    "ILS": 3.598351,
    "IMP": 0.75403,
    "INR": 68.5895,
    "IQD": 1193.01198,
    "IRR": 42105,
    "ISK": 115.230028,
    "JEP": 0.75403,
    "JMD": 124.657475,
    "JOD": 0.7084,
    "JPY": 111.525,
    "KES": 100.548039,
    "KGS": 68.697787,
    "KHR": 3993.252461,
    "KMF": 435.124235,
    "KPW": 900,
    "KRW": 1132.747455,
    "KWD": 0.303737,
    "KYD": 0.833251,
    "KZT": 379.259475,
    "LAK": 8587.436263,
    "LBP": 1507.939936,
    "LKR": 178.510923,
    "LRD": 162.099955,
    "LSL": 14.445061,
    "LYD": 1.387425,
    "MAD": 9.59114,
    "MDL": 17.225138,
    "MGA": 3527.87002,
    "MKD": 54.225,
    "MMK": 1532.655424,
    "MNT": 2512.48338,
    "MOP": 8.08357,
    "MRO": 357,
    "MRU": 36.63,
    "MUR": 34.6545,
    "MVR": 15.450033,
    "MWK": 729.756381,
    "MXN": 19.22335,
    "MYR": 4.076476,
    "MZN": 62.754284,
    "NAD": 14.445061,
    "NGN": 360.93,
    "NIO": 32.893571,
    "NOK": 8.535006,
    "NPR": 110.460149,
    "NZD": 1.456452,
    "OMR": 0.385086,
    "PAB": 1,
    "PEN": 3.294401,
    "PGK": 3.374847,
    "PHP": 52.710645,
    "PKR": 139.823316,
    "PLN": 3.78805,
    "PYG": 6112.364666,
    "QAR": 3.6406,
    "RON": 4.191312,
    "RSD": 103.990378,
    "RUB": 64.665,
    "RWF": 901.173218,
    "SAR": 3.75035,
    "SBD": 8.15425,
    "SCR": 13.663374,
    "SDG": 47.602294,
    "SEK": 9.23576,
    "SGD": 1.351503,
    "SHP": 0.75403,
    "SLL": 8390,
    "SOS": 578.397634,
    "SRD": 7.458,
    "SSP": 130.2634,
    "STD": 21050.59961,
    "STN": 21.675,
    "SVC": 8.748592,
    "SYP": 514.986726,
    "SZL": 14.445049,
    "THB": 31.680463,
    "TJS": 9.433069,
    "TMT": 3.50998,
    "TND": 3.005493,
    "TOP": 2.2612,
    "TRY": 5.466711,
    "TTD": 6.782653,
    "TWD": 30.819495,
    "TZS": 2345.4,
    "UAH": 27.027218,
    "UGX": 3699.308762,
    "USD": 1,
    "UYU": 33.536384,
    "UZS": 8370.058995,
    "VEF": 248487.642241,
    "VES": 3291.516389,
    "VND": 23147.36311,
    "VUV": 111.268062,
    "WST": 2.603881,
    "XAF": 578.21464,
    "XAG": 0.06524019,
    "XAU": 0.0007671,
    "XCD": 2.7026,
    "XDR": 0.716189,
    "XOF": 578.21464,
    "XPD": 0.00063961,
    "XPF": 105.188847,
    "XPT": 0.00120413,
    "YER": 250.300682,
    "ZAR": 14.457125,
    "ZMW": 11.993007,
    "ZWL": 322.355011
  }
}